…
This "stacking" task (also refered to as "melting") is accomplished using `gather` from the `tidyr` package. `gather` creates two new columns from your data: "key" and "value".
 + **key**: a new column that will hold the old variable names from the gathered data
 + **value**: a new column that will hold the data values

After the **key** and **value** arguments. We can tell `gather` what colums we want to stack using the same syntax used by dplyr's `select()`. In this example, we tell it we want to gather our three cognitive scales using `starts_with()`.


```r
library(tidyr)
alldata %>% 
  gather(cog_scale, cognitive_score, starts_with("cog"))
```

```
## # A tibble: 1,050 x 9
##    subject_ID   age sex   ethnicity dx    genotype risk_carrier cog_scale
##    <chr>      <dbl> <fct> <fct>     <fct> <fct>    <fct>        <chr>    
##  1 SUB_1         43 Male  Cauc      Cont… GG       carrier      cog1     
##  2 SUB_2         47 Fema… Cauc      Case  AG       carrier      cog1     
##  3 SUB_3         69 Fema… Cauc      Case  AA       non_carrier  cog1     
##  4 SUB_4         51 Male  Cauc      Case  GG       carrier      cog1     
##  5 SUB_5         52 Fema… Cauc      Cont… AA       non_carrier  cog1     
##  6 SUB_6         71 Male  AA        Case  AA       non_carrier  cog1     
##  7 SUB_7         56 Fema… Cauc      Case  AA       non_carrier  cog1     
##  8 SUB_8         35 Fema… <NA>      Cont… GG       carrier      cog1     
##  9 SUB_9         42 Fema… Cauc      Cont… AG       carrier      cog1     
## 10 SUB_10        45 Fema… Other     Case  <NA>     <NA>         cog1     
## # … with 1,040 more rows, and 1 more variable: cognitive_score <dbl>
```
…
