CAMH R-stats Workshops
…
3.8 BONUS section - gather cognitive scores into one plot

One things we want to do sometimes is to stack data from multiple columns in one column. The reason why this is useful, will hopefully become apparent in the next example.

This “stacking” task (also refered to as “melting”) is accomplished using gather from the tidyr package. gather creates two new columns from your data: “key” and “value”. + key: a new column that will hold the old variable names from the gathered data + value: a new column that will hold the data values

After the key and value arguments. We can tell gather what colums we want to stack using the same syntax used by dplyr’s select(). In this example, we tell it we want to gather our three cognitive scales using starts_with().

library(tidyr)
alldata %>% 
  gather(cog_scale, cognitive_score, starts_with("cog"))

## # A tibble: 1,050 x 9
##    subject_ID   age sex    ethnicity dx    genotype risk_carrier cog_scale
##    <chr>      <dbl> <fct>  <fct>     <fct> <fct>    <fct>        <chr>    
##  1 SUB_1       43.0 Male   Cauc      Cont… GG       carrier      cog1     
##  2 SUB_2       47.0 Female Cauc      Case  AG       carrier      cog1     
##  3 SUB_3       69.0 Female Cauc      Case  AA       non_carrier  cog1     
##  4 SUB_4       51.0 Male   Cauc      Case  GG       carrier      cog1     
##  5 SUB_5       52.0 Female Cauc      Cont… AA       non_carrier  cog1     
##  6 SUB_6       71.0 Male   AA        Case  AA       non_carrier  cog1     
##  7 SUB_7       56.0 Female Cauc      Case  AA       non_carrier  cog1     
##  8 SUB_8       35.0 Female <NA>      Cont… GG       carrier      cog1     
##  9 SUB_9       42.0 Female Cauc      Cont… AG       carrier      cog1     
## 10 SUB_10      45.0 Female Other     Case  <NA>     <NA>         cog1     
## # ... with 1,040 more rows, and 1 more variable: cognitive_score <dbl>
…
